{
  "2008": {
    "SC Ganguly": 116.39,
    "BB McCullum": 208.79,
    "RT Ponting": 88.68,
    "DJ Hussey": 126.74,
    "Mohammad Hafeez": 81.93,
    "R Dravid": 125.59,
    "W Jaffer": 111.54,
    "V Kohli": 109.55,
    "JH Kallis": 113.66,
    "CL White": 109,
    "MV Boucher": 129.94,
    "B Akhil": 154.84,
    "AA Noffke": 90,
    "P Kumar": 117.35,
    "Z Khan": 80.95,
    "SB Joshi": 42.86,
    "PA Patel": 102.37,
    "ML Hayden": 148.82,
    "MEK Hussey": 170,
    "MS Dhoni": 136.77,
    "SK Raina": 144.56,
    "JDP Oram": 150,
    "S Badrinath": 149.23,
    "K Goel": 100,
    "JR Hopes": 149.32,
    "KC Sangakkara": 163.96,
    "Yuvraj Singh": 163.04,
    "SM Katich": 145.59,
    "IK Pathan": 120.87,
    "T Kohli": 66.67,
    "YK Pathan": 181.59,
    "SR Watson": 155.05,
    "M Kaif": 108.24,
    "DS Lehmann": 105.56,
    "RA Jadeja": 139,
    "M Rawat": 92.31,
    "D Salunkhe": 137.5,
    "SK Warne": 122.41,
    "SK Trivedi": 41.67,
    "G Gambhir": 143.39,
    "V Sehwag": 190.74,
    "S Dhawan": 117.63,
    "L Ronchi": 106.25,
    "ST Jayasuriya": 169.48,
    "DJ Thornely": 98.11,
    "RV Uthappa": 121.53,
    "PR Shah": 105.88,
    "AM Nayar": 152.55,
    "SM Pollock": 134.23,
    "Harbhajan Singh": 176.47,
    "S Chanderpaul": 80.65,
    "LRPL Taylor": 187.65,
    "AC Gilchrist": 140.45,
    "Y Venugopal Rao": 139.61,
    "VVS Laxman": 118.94,
    "A Symonds": 155.77,
    "RG Sharma": 151.11,
    "SB Styris": 96.72,
    "AS Yadav": 130.77,
    "SB Bangar": 97.96,
    "WPUJC Vaas": 94.12,
    "RP Singh": 116.67,
    "WP Saha": 137.82,
    "LR Shukla": 139.34,
    "DPMD Jayawardene": 138.93,
    "S Sohal": 50,
    "B Lee": 141.67,
    "PP Chawla": 153.45,
    "WA Mota": 96.3,
    "Kamran Akmal": 164.94,
    "Shahid Afridi": 178.26,
    "DJ Bravo": 138.17,
    "MA Khote": 122.73,
    "A Nehra": 25,
    "GC Smith": 124.93,
    "Pankaj Singh": 62.5,
    "RR Sarwan": 98.67,
    "S Sreesanth": 33.33,
    "VRV Singh": 166.67,
    "SS Tiwary": 130,
    "DS Kulkarni": 12.5,
    "R Vinay Kumar": 118.18,
    "AB Agarkar": 122.22,
    "M Kartik": 114.81,
    "I Sharma": 109.09,
    "AM Rahane": 23.53,
    "Shoaib Malik": 113.04,
    "MK Tiwary": 124.71,
    "KD Karthik": 140.19,
    "R Bhatia": 132.14,
    "MF Maharoof": 160.76,
    "VY Mahesh": 59.26,
    "TM Srivastava": 80,
    "B Chipli": 71.43,
    "DW Steyn": 40,
    "DB Das": 113.83,
    "MK Pandey": 33.33,
    "HH Gibbs": 111.76,
    "DNT Zoysa": 144.44,
    "D Kalyankrishna": 50,
    "SE Marsh": 142.95,
    "SA Asnodkar": 143.29,
    "Sohail Tanvir": 125,
    "Salman Butt": 123.13,
    "BJ Hodge": 70.59,
    "Umar Gul": 231.58,
    "AB Dinda": 75,
    "SP Fleming": 120.99,
    "S Vidyut": 136.7,
    "JA Morkel": 146.3,
    "AB de Villiers": 98.98,
    "LPC Silva": 161.54,
    "DB Ravi Teja": 135.8,
    "Misbah-ul-Haq": 146.91,
    "YV Takawale": 112.5,
    "RR Raje": 88.89,
    "PJ Sangwan": 60,
    "Mohammad Asif": 50,
    "GD McGrath": 80,
    "Joginder Sharma": 145.45,
    "MS Gony": 159.09,
    "M Muralitharan": 0,
    "M Ntini": 61.11,
    "DT Patil": 100,
    "A Kumble": 100,
    "S Anirudha": 71.43,
    "MM Patel": 0,
    "CK Kapugedera": 77.27,
    "A Chopra": 80.77,
    "T Taibu": 119.23,
    "J Arunkumar": 104.35,
    "PP Ojha": 75,
    "SP Goswami": 96.47,
    "SR Tendulkar": 110.17,
    "U Kaul": 0,
    "TM Dilshan": 132.05,
    "A Mishra": 88.1,
    "AD Mascarenhas": 112.5,
    "Niraj Patel": 133.33,
    "LA Pomersbach": 162.63,
    "Iqbal Abdulla": 50,
    "Younis Khan": 42.86,
    "PM Sarvesh Kumar": 50,
    "DP Vijaykumar": 100,
    "Shoaib Akhtar": 28.57,
    "Abdur Razzak": 0,
    "H Das": 40,
    "DR Smith": 117.5,
    "SD Chitnis": 133.33,
    "CRD Fernando": 200,
    "VS Yeligati": 100,
    "L Balaji": 25,
    "A Mukund": 0,
    "RR Powar": 138.1
  },
  "2009": {
    "ST Jayasuriya": 117.37,
    "SR Tendulkar": 122.41,
    "S Dhawan": 88.89,
    "JP Duminy": 117.54,
    "DJ Bravo": 109.45,
    "AM Nayar": 130.46,
    "Harbhajan Singh": 164.15,
    "Z Khan": 72.73,
    "PA Patel": 120.63,
    "SK Raina": 143.14,
    "ML Hayden": 151.4,
    "A Flintoff": 128.3,
    "MS Dhoni": 127.97,
    "JDP Oram": 96.74,
    "S Badrinath": 114.02,
    "Joginder Sharma": 111.11,
    "T Thushara": 28.57,
    "JD Ryder": 116.67,
    "LRPL Taylor": 138.83,
    "KP Pietersen": 111.9,
    "RV Uthappa": 106.47,
    "R Dravid": 117.52,
    "V Kohli": 115.07,
    "B Akhil": 113.33,
    "P Kumar": 141.3,
    "R Vinay Kumar": 109.09,
    "GC Smith": 99.53,
    "SA Asnodkar": 105.38,
    "Niraj Patel": 47.37,
    "T Henderson": 73.33,
    "YK Pathan": 142.78,
    "AD Mascarenhas": 102.56,
    "RA Jadeja": 112.83,
    "SK Warne": 95.69,
    "M Rawat": 89.47,
    "MM Patel": 126.92,
    "Kamran Khan": 60,
    "RS Bopara": 118.49,
    "K Goel": 96.99,
    "KC Sangakkara": 106.83,
    "Yuvraj Singh": 117.35,
    "DPMD Jayawardene": 133.94,
    "IK Pathan": 131.65,
    "G Gambhir": 105.07,
    "V Sehwag": 150,
    "BB McCullum": 122.03,
    "CH Gayle": 125.68,
    "SC Ganguly": 90.73,
    "BJ Hodge": 119.09,
    "A Chopra": 63.16,
    "LR Shukla": 101.18,
    "MC Henriques": 95,
    "AB Agarkar": 121.05,
    "M Kartik": 105,
    "I Sharma": 130.77,
    "AB Dinda": 66.67,
    "AC Gilchrist": 154.04,
    "HH Gibbs": 116.36,
    "VVS Laxman": 57.58,
    "RG Sharma": 115.34,
    "JA Morkel": 141.43,
    "JH Kallis": 110.57,
    "R Bishnoi": 111.76,
    "DW Steyn": 0,
    "A Kumble": 84.21,
    "T Kohli": 25,
    "PP Chawla": 97.22,
    "SB Styris": 175,
    "Y Venugopal Rao": 109.65,
    "DB Ravi Teja": 104.29,
    "FH Edwards": 80,
    "KV Sharma": 33.33,
    "AB de Villiers": 130.23,
    "TM Dilshan": 124.78,
    "KD Karthik": 134.56,
    "MK Tiwary": 69.23,
    "MS Gony": 185.71,
    "M Muralitharan": 100,
    "PC Valthaty": 50,
    "RJ Quiney": 108.82,
    "AS Raut": 127.87,
    "SB Bangar": 55.56,
    "Yashpal Singh": 72.31,
    "Pankaj Singh": 50,
    "DR Smith": 168.7,
    "RP Singh": 52.94,
    "PP Ojha": 28.57,
    "PR Shah": 107.84,
    "MV Boucher": 127.19,
    "M Manhas": 124.19,
    "WA Mota": 75,
    "AA Bilakhia": 90,
    "SS Tiwary": 108.33,
    "AN Ghosh": 87.5,
    "BAW Mendis": 0,
    "DL Vettori": 116.13,
    "A Mishra": 135,
    "PJ Sangwan": 60,
    "MN van Wyk": 127.48,
    "WP Saha": 178.05,
    "SP Goswami": 88.33,
    "RE van der Merwe": 128.57,
    "MK Pandey": 143.59,
    "RR Powar": 104.55,
    "TL Suman": 126.84,
    "Shoaib Ahmed": 16.67,
    "SK Trivedi": 52.94,
    "GR Napier": 93.75,
    "AM Rahane": 125.62,
    "KP Appanna": 100,
    "SM Katich": 126.5,
    "TM Srivastava": 0,
    "LA Carseldine": 122.73,
    "NV Ojha": 117.36,
    "SM Harwood": 84.62,
    "M Vijay": 97.01,
    "SB Jakati": 133.33,
    "L Balaji": 70,
    "DA Warner": 124.24,
    "R Bhatia": 44.44,
    "S Sohal": 126.37,
    "W Jaffer": 88.24,
    "RJ Harris": 122.22,
    "S Sreesanth": 33.33,
    "RR Raje": 133.33,
    "DS Kulkarni": 58.82,
    "D du Preez": 76.92,
    "L Ronchi": 0,
    "A Symonds": 153.37,
    "B Lee": 88.24,
    "WPUJC Vaas": 142.86,
    "M Morkel": 100,
    "DJ Hussey": 164.91,
    "AD Mathews": 123.08,
    "LA Pomersbach": 89.13,
    "SD Chitnis": 75,
    "J Botha": 125.64,
    "YV Takawale": 81.82,
    "C Nanda": 0,
    "SL Malinga": 0,
    "MF Maharoof": 100,
    "A Nehra": 100,
    "Mashrafe Mortaza": 100,
    "A Singh": 33.33,
    "GJ Bailey": 117.95,
    "AB McDonald": 75,
    "Y Nagar": 100,
    "SS Shaikh": 85.71,
    "R Ashwin": 53.33,
    "Mohammad Ashraful": 30
  },
  "2010": {
    "MK Tiwary": 129.73,
    "SC Ganguly": 120.57,
    "CA Pujara": 110.43,
    "BJ Hodge": 111.11,
    "OA Shah": 123.16,
    "AD Mathews": 131.15,
    "AC Gilchrist": 158.92,
    "VVS Laxman": 108.33,
    "HH Gibbs": 118.38,
    "A Symonds": 128.24,
    "RG Sharma": 136.67,
    "Anirudh Singh": 95.45,
    "TL Suman": 121.96,
    "WPUJC Vaas": 91.18,
    "Jaskaran Singh": 72.73,
    "ST Jayasuriya": 109.68,
    "SR Tendulkar": 135.85,
    "AP Tare": 141.67,
    "SS Tiwary": 137.46,
    "AT Rayudu": 147.54,
    "R Sathish": 120.83,
    "Harbhajan Singh": 171.67,
    "R McLaren": 102.9,
    "GC Smith": 112.82,
    "NV Ojha": 134.63,
    "AA Jhunjhunwala": 112.65,
    "YK Pathan": 166,
    "P Dogra": 100.94,
    "AD Mascarenhas": 120,
    "A Uniyal": 57.14,
    "SK Warne": 52.63,
    "RS Bopara": 117.76,
    "MS Bisla": 125.42,
    "KC Sangakkara": 139.84,
    "Yuvraj Singh": 132.5,
    "DPMD Jayawardene": 151.17,
    "IK Pathan": 154.3,
    "M Kaif": 93.33,
    "PP Chawla": 106.78,
    "RR Powar": 62.5,
    "S Sreesanth": 147.62,
    "YA Abdulla": 100,
    "G Gambhir": 130.88,
    "V Sehwag": 165.44,
    "TM Dilshan": 86.79,
    "AB de Villiers": 94.96,
    "KD Karthik": 122.03,
    "M Manhas": 107.38,
    "MF Maharoof": 139.13,
    "JH Kallis": 117.38,
    "SP Goswami": 80,
    "MK Pandey": 113.33,
    "V Kohli": 146.92,
    "EJG Morgan": 116.67,
    "R Dravid": 131.16,
    "RV Uthappa": 174.77,
    "RE van der Merwe": 50,
    "P Kumar": 62.5,
    "M Vijay": 157.19,
    "ML Hayden": 126.16,
    "SK Raina": 145.33,
    "S Badrinath": 121.93,
    "JM Kemp": 108.33,
    "MS Dhoni": 140.48,
    "JA Morkel": 156.49,
    "R Ashwin": 80,
    "L Balaji": 90,
    "M Muralitharan": 50,
    "S Tyagi": 75,
    "SA Asnodkar": 125,
    "WP Saha": 132.08,
    "LR Shukla": 142.31,
    "RS Gavaskar": 25,
    "SE Bond": 50,
    "M Kartik": 100,
    "I Sharma": 35.29,
    "KA Pollard": 189.73,
    "DJ Bravo": 116.98,
    "A Mishra": 80,
    "PJ Sangwan": 71.43,
    "S Ladda": 0,
    "DP Nannes": 30.77,
    "MJ Lumb": 153.44,
    "DR Martyn": 79.17,
    "S Narwal": 116.67,
    "M Morkel": 56.25,
    "MM Patel": 100,
    "SK Trivedi": 142.86,
    "DA Warner": 146.56,
    "R Bhatia": 147.06,
    "PA Patel": 94.94,
    "RP Singh": 57.89,
    "AB Barath": 102.38,
    "Bipul Sharma": 128.57,
    "FY Fazal": 112.42,
    "AC Voges": 132.87,
    "Z Khan": 184.62,
    "MD Mishra": 121.83,
    "Y Venugopal Rao": 79.07,
    "MC Henriques": 220,
    "Y Nagar": 50,
    "UT Yadav": 75,
    "J Theron": 40,
    "MS Gony": 33.33,
    "CH Gayle": 165.57,
    "S Dhawan": 111.24,
    "MV Boucher": 130,
    "GJ Bailey": 81.48,
    "SJ Srivastava": 50,
    "R Sharma": 111.54,
    "Mandeep Singh": 36.36,
    "DJ Hussey": 115.29,
    "K Goel": 95,
    "B Lee": 122.22,
    "KM Jadhav": 135.71,
    "AB McDonald": 128.85,
    "R Vinay Kumar": 87.5,
    "DW Steyn": 100,
    "A Kumble": 63.64,
    "SW Tait": 92.31,
    "KB Arun Karthik": 80,
    "T Thushara": 90.91,
    "KAJ Roach": 111.11,
    "PD Collingwood": 132.05,
    "AB Agarkar": 139.29,
    "CK Langeveldt": 0,
    "SE Marsh": 133.33,
    "VS Malik": 160,
    "KP Pietersen": 154.14,
    "CL White": 145.45,
    "SR Watson": 161.06,
    "AS Raut": 116.67,
    "RJ Harris": 115.38,
    "PP Ojha": 37.5,
    "DL Vettori": 140.74,
    "LRPL Taylor": 121.33,
    "A Mithun": 125,
    "KP Appanna": 66.67,
    "AP Dole": 154.55,
    "DR Smith": 92,
    "AA Bilakhia": 50,
    "MEK Hussey": 88.64,
    "AN Ahmed": 71.43,
    "BB McCullum": 106.42,
    "JP Duminy": 122.14,
    "RS Sodhi": 200,
    "DE Bollinger": 125,
    "AB Dinda": 0,
    "BAW Mendis": 100,
    "S Sriram": 96.55,
    "A Nehra": 115.79,
    "B Sumanth": 94.59,
    "C Madan": 100,
    "Iqbal Abdulla": 100,
    "AG Paunikar": 0,
    "MR Marsh": 100,
    "AM Nayar": 123.53,
    "Pankaj Singh": 50,
    "AJ Finch": 100,
    "STR Binny": 160,
    "S Anirudha": 188.89,
    "Harmeet Singh": 0,
    "CRD Fernando": 100,
    "SL Malinga": 100
  },
  "2011": {
    "S Anirudha": 114.86,
    "M Vijay": 128.91,
    "SK Raina": 135.6,
    "MS Dhoni": 160.82,
    "JA Morkel": 138,
    "SB Styris": 250,
    "MS Bisla": 88.76,
    "JH Kallis": 113.49,
    "YK Pathan": 143,
    "MK Tiwary": 111.18,
    "EJG Morgan": 122.22,
    "G Gambhir": 121.34,
    "LR Shukla": 140,
    "Iqbal Abdulla": 125,
    "R Bhatia": 118.18,
    "S Dhawan": 132.69,
    "IR Jaggi": 75.68,
    "KC Sangakkara": 125.09,
    "B Chipli": 122.94,
    "JP Duminy": 118.5,
    "DT Christian": 117.83,
    "DB Ravi Teja": 130.07,
    "DW Steyn": 114.29,
    "A Mishra": 142.86,
    "I Sharma": 80,
    "AG Paunikar": 90.74,
    "R Dravid": 114.74,
    "J Botha": 118.18,
    "LRPL Taylor": 126.67,
    "BB McCullum": 132.35,
    "VVS Laxman": 107.32,
    "DPMD Jayawardene": 119.46,
    "BJ Hodge": 125.21,
    "RA Jadeja": 125.55,
    "RV Gomez": 98,
    "PA Patel": 111.54,
    "MA Agarwal": 122.22,
    "TM Dilshan": 129.44,
    "V Kohli": 123.31,
    "AB de Villiers": 130.17,
    "SS Tiwary": 101.08,
    "AUK Pathan": 206.25,
    "DA Warner": 122.91,
    "V Sehwag": 178.66,
    "UBT Chand": 25,
    "AJ Finch": 104.35,
    "NV Ojha": 100,
    "Y Venugopal Rao": 122.22,
    "IK Pathan": 116.06,
    "RE van der Merwe": 87.5,
    "M Morkel": 150,
    "UT Yadav": 20,
    "AB Dinda": 0,
    "DJ Jacobs": 111.36,
    "SR Tendulkar": 119.67,
    "AT Rayudu": 115.47,
    "RG Sharma": 125.93,
    "AC Gilchrist": 140.21,
    "SE Marsh": 150.73,
    "PC Valthaty": 139.82,
    "KD Karthik": 130.91,
    "AM Nayar": 101.52,
    "Sunny Singh": 141.94,
    "R McLaren": 93.75,
    "PP Chawla": 90.91,
    "P Kumar": 90.32,
    "NJ Rimmington": 100,
    "GC Smith": 82.35,
    "M Manhas": 93.5,
    "JD Ryder": 150.51,
    "RV Uthappa": 131.22,
    "Yuvraj Singh": 132.18,
    "AL Menaria": 119.08,
    "AM Rahane": 122.45,
    "S Badrinath": 128.53,
    "R Vinay Kumar": 106.38,
    "S Sreesanth": 22.22,
    "RP Singh": 75,
    "MD Mishra": 113.33,
    "WD Parnell": 97.44,
    "R Sharma": 114.29,
    "S Sohal": 134.21,
    "Z Khan": 87.5,
    "CA Pujara": 109.68,
    "JJ van der Wath": 112.5,
    "R Ninan": 60,
    "DL Vettori": 103.57,
    "S Aravind": 162.5,
    "SR Watson": 132.54,
    "MEK Hussey": 123.24,
    "MS Gony": 50,
    "MS Wade": 69.7,
    "JR Hopes": 126.11,
    "FY Fazal": 105.26,
    "AS Raut": 103.45,
    "SK Warne": 50,
    "A Singh": 25,
    "SW Tait": 100,
    "SK Trivedi": 0,
    "CL White": 96.33,
    "Y Nagar": 116,
    "TD Paine": 46.15,
    "M Kartik": 85.71,
    "SB Wagh": 66.67,
    "AC Thomas": 25,
    "JEC Franklin": 139.74,
    "A Symonds": 100.72,
    "KM Jadhav": 78.26,
    "RR Powar": 84.62,
    "Shakib Al Hasan": 136.36,
    "B Lee": 55.56,
    "L Balaji": 200,
    "SA Asnodkar": 100,
    "STR Binny": 119.35,
    "DH Yagnik": 80.95,
    "R Sathish": 76.47,
    "KA Pollard": 116.67,
    "R Ashwin": 33.33,
    "Joginder Sharma": 0,
    "S Randiv": 50,
    "DE Bollinger": 0,
    "BJ Haddin": 163.64,
    "CH Gayle": 186.1,
    "DJ Hussey": 107.94,
    "RJ Harris": 78.95,
    "NLTC Perera": 85.19,
    "M Muralitharan": 85.71,
    "MK Pandey": 111.01,
    "NL McCullum": 122.73,
    "JE Taylor": 100,
    "A Mithun": 150,
    "J Syed Mohammad": 125,
    "MR Marsh": 102.04,
    "SP Goswami": 100,
    "RN ten Doeschate": 147.95,
    "TR Birt": 133.33,
    "Harbhajan Singh": 150.7,
    "SL Malinga": 88.89,
    "AG Murtaza": 40,
    "M Kaif": 124.24,
    "Harpreet Singh": 70,
    "M Klinger": 97.33,
    "B Akhil": 144.44,
    "Bipul Sharma": 127.78,
    "AC Blizzard": 143.68,
    "TL Suman": 131.37,
    "AA Jhunjhunwala": 82.35,
    "MV Boucher": 166.67,
    "I Malhotra": 175,
    "L Ablish": 0,
    "CA Ingram": 104,
    "AB Agarkar": 140,
    "S Nadeem": 0,
    "P Parameswaran": 100,
    "Mandeep Singh": 114.63,
    "SD Chitnis": 100,
    "SJ Srivastava": 133.33,
    "CJ Ferguson": 88.89,
    "SC Ganguly": 87.93,
    "DS Kulkarni": 50,
    "MM Patel": 0,
    "AB McDonald": 114.29,
    "OA Shah": 180,
    "LA Pomersbach": 133.33,
    "KB Arun Karthik": 137.5,
    "MJ Lumb": 0,
    "S Sriram": 57.14,
    "VR Aaron": 0,
    "PR Shah": 100,
    "JDP Oram": 0,
    "AA Chavan": 33.33,
    "ND Doshi": 0,
    "B Kumar": 100,
    "CK Langeveldt": 100,
    "WP Saha": 115.87,
    "Y Gnaneswara Rao": 111.76,
    "S Rana": 113.33,
    "BA Bhatt": 0,
    "DJ Bravo": 183.33,
    "AN Ahmed": 138.46
  },
  "2012": {
    "F du Plessis": 131.35,
    "M Vijay": 127.55,
    "SK Raina": 137.96,
    "DJ Bravo": 142.75,
    "JA Morkel": 161.76,
    "S Badrinath": 108.84,
    "MS Dhoni": 130.91,
    "RA Jadeja": 129.8,
    "R Ashwin": 126.67,
    "SB Jakati": 58.33,
    "DE Bollinger": 60,
    "RE Levi": 120.55,
    "SR Tendulkar": 116.25,
    "RG Sharma": 128.45,
    "AT Rayudu": 134.13,
    "JEC Franklin": 100.9,
    "BB McCullum": 106.01,
    "JH Kallis": 108.9,
    "G Gambhir": 144.77,
    "MK Tiwary": 108.54,
    "YK Pathan": 121.69,
    "DB Das": 140.22,
    "LR Shukla": 131.58,
    "R Bhatia": 125,
    "B Lee": 210,
    "Iqbal Abdulla": 66.67,
    "AJ Finch": 111.76,
    "V Sehwag": 167.1,
    "IK Pathan": 144.44,
    "GJ Maxwell": 72.73,
    "MK Pandey": 130,
    "WD Parnell": 88.89,
    "SC Ganguly": 102.95,
    "RV Uthappa": 120.18,
    "CJ Ferguson": 80.95,
    "SPD Smith": 135.5,
    "MN Samuels": 109.76,
    "B Kumar": 102.5,
    "M Kartik": 123.81,
    "KD Karthik": 114.62,
    "SA Yadav": 0,
    "KA Pollard": 143.04,
    "Harbhajan Singh": 137.5,
    "SL Malinga": 107.55,
    "PP Ojha": 30.77,
    "MM Patel": 28.57,
    "R Dravid": 113.83,
    "AM Rahane": 130.95,
    "AL Menaria": 107.5,
    "BJ Hodge": 142.77,
    "OA Shah": 137.65,
    "KK Cooper": 194.74,
    "AC Gilchrist": 120.42,
    "PC Valthaty": 60.78,
    "SE Marsh": 121.79,
    "AM Nayar": 104.08,
    "Mandeep Singh": 128.74,
    "DJ Hussey": 131.48,
    "Bipul Sharma": 153.19,
    "PP Chawla": 121.59,
    "JP Faulkner": 107.69,
    "P Kumar": 120.69,
    "Harmeet Singh": 214.29,
    "AB McDonald": 140,
    "CA Pujara": 77.27,
    "V Kohli": 112.92,
    "AB de Villiers": 163.96,
    "SS Tiwary": 114.37,
    "MA Agarwal": 143.95,
    "DL Vettori": 123.08,
    "R Vinay Kumar": 111.29,
    "HV Patel": 100,
    "NV Ojha": 116.14,
    "Y Venugopal Rao": 107.14,
    "Y Nagar": 117.29,
    "DAJ Bracewell": 133.33,
    "M Morkel": 60,
    "DJ Harris": 111.88,
    "S Dhawan": 130.59,
    "PA Patel": 127.44,
    "CL White": 150.47,
    "B Chipli": 105.71,
    "DT Christian": 124.58,
    "MS Gony": 50,
    "DB Ravi Teja": 100,
    "DW Steyn": 90.48,
    "Ankit Sharma": 138.46,
    "SP Goswami": 104.48,
    "SP Narine": 128.57,
    "JD Ryder": 121.33,
    "R Sharma": 36.36,
    "AD Mascarenhas": 87.5,
    "KC Sangakkara": 113.11,
    "A Mishra": 80,
    "TL Suman": 84.21,
    "MS Bisla": 138.75,
    "RN ten Doeschate": 104.76,
    "Shakib Al Hasan": 139.73,
    "CH Gayle": 160.31,
    "Z Khan": 70.59,
    "KP Pietersen": 147.83,
    "DPMD Jayawardene": 114.43,
    "J Botha": 109.26,
    "AA Chavan": 137.5,
    "A Singh": 0,
    "SK Trivedi": 83.33,
    "GB Hogg": 93.75,
    "RR Bhatkal": 0,
    "AD Mathews": 118.52,
    "M Manhas": 129.17,
    "A Nehra": 100,
    "AB Dinda": 60,
    "JP Duminy": 131.05,
    "AA Jhunjhunwala": 92.31,
    "LRPL Taylor": 118.13,
    "P Dogra": 62.5,
    "BA Bhatt": 300,
    "M Kaif": 87.5,
    "S Aravind": 175,
    "M Muralitharan": 66.67,
    "DJ Jacobs": 10,
    "CJ McKay": 53.33,
    "RP Singh": 50,
    "DH Yagnik": 192.31,
    "TM Dilshan": 113.13,
    "DA Warner": 172.26,
    "N Saini": 101.43,
    "DA Miller": 136,
    "Azhar Mahmood": 133.1,
    "P Negi": 124.14,
    "NLTC Perera": 44.44,
    "IR Jaggi": 71.43,
    "STR Binny": 135.82,
    "RJ Peterson": 113.33,
    "AC Thomas": 126.67,
    "AC Blizzard": 0,
    "WP Saha": 57.14,
    "KMDN Kulasekara": 200,
    "A Ashish Reddy": 134.48,
    "V Pratap Singh": 0,
    "MEK Hussey": 113.56,
    "BB Samantray": 100,
    "MJ Clarke": 107.45,
    "SR Watson": 154.76,
    "AUK Pathan": 85.71,
    "Gurkeerat Singh": 175,
    "RJ Harris": 163.64,
    "DR Smith": 162.89,
    "J Syed Mohammad": 400,
    "S Nadeem": 0,
    "VR Aaron": 33.33,
    "AP Majumdar": 117.11,
    "SD Chitnis": 108.06,
    "PA Reddy": 123.73,
    "J Theron": 116.67,
    "S Anirudha": 316.67,
    "MD Mishra": 100,
    "K Upadhyay": 137.5,
    "HH Gibbs": 94.32,
    "P Awana": 80,
    "UBT Chand": 105.88,
    "AD Russell": 184.62,
    "UT Yadav": 28.57,
    "A Chandila": 0,
    "CA Lynn": 66.67,
    "Harpreet Singh": 100,
    "AG Murtaza": 60,
    "P Parameswaran": 0,
    "DS Kulkarni": 200,
    "Sunny Gupta": 0
  },
  "2013": {
    "UBT Chand": 102.55,
    "DPMD Jayawardene": 108.33,
    "DA Warner": 129.01,
    "MC Juneja": 100,
    "NV Ojha": 90,
    "J Botha": 82.69,
    "IK Pathan": 100,
    "AD Russell": 78.57,
    "S Nadeem": 51.85,
    "A Nehra": 12.5,
    "MS Bisla": 114.89,
    "G Gambhir": 123.39,
    "JH Kallis": 99.07,
    "MK Tiwary": 107.14,
    "EJG Morgan": 137.08,
    "YK Pathan": 140.59,
    "CH Gayle": 159.47,
    "TM Dilshan": 83.7,
    "V Kohli": 140.97,
    "MA Agarwal": 108.06,
    "DT Christian": 40,
    "KK Nair": 75,
    "KB Arun Karthik": 123.68,
    "RT Ponting": 73.33,
    "SR Tendulkar": 125.97,
    "KD Karthik": 126.41,
    "RG Sharma": 131.13,
    "AT Rayudu": 117.47,
    "Harbhajan Singh": 146.84,
    "KA Pollard": 151.44,
    "PA Reddy": 90.1,
    "PA Patel": 117.25,
    "KC Sangakkara": 91.18,
    "CL White": 118.37,
    "NLTC Perera": 149.69,
    "GH Vihari": 87.36,
    "A Ashish Reddy": 140.45,
    "DB Ravi Teja": 88.24,
    "RV Uthappa": 117.93,
    "MK Pandey": 100.73,
    "MN Samuels": 44.44,
    "Yuvraj Singh": 126.32,
    "LRPL Taylor": 84.21,
    "AM Nayar": 94.52,
    "MR Marsh": 133.96,
    "AD Mathews": 123.74,
    "B Kumar": 73.24,
    "R Sharma": 70.59,
    "AB Dinda": 81.82,
    "MDKJ Perera": 115.38,
    "AM Rahane": 108.08,
    "R Dravid": 113.21,
    "STR Binny": 149.25,
    "BJ Hodge": 139.17,
    "AL Menaria": 50,
    "KK Cooper": 177.27,
    "R Shukla": 50,
    "DR Smith": 127.65,
    "MEK Hussey": 131.86,
    "M Vijay": 109.79,
    "SK Raina": 152.2,
    "DJ Bravo": 117.92,
    "S Badrinath": 105,
    "MS Dhoni": 164.29,
    "RA Jadeja": 150,
    "R Ashwin": 73.47,
    "B Laughlin": 44.44,
    "AS Rajpoot": 33.33,
    "TL Suman": 89.66,
    "AC Gilchrist": 131,
    "Mandeep Singh": 119.73,
    "M Vohra": 137.61,
    "DJ Hussey": 113.46,
    "MC Henriques": 134.68,
    "R Vinay Kumar": 161.36,
    "M Kartik": 66.67,
    "JD Unadkat": 100,
    "DW Steyn": 150,
    "SR Watson": 147.09,
    "DH Yagnik": 137.63,
    "S Sreesanth": 50,
    "LR Shukla": 25,
    "R Bhatia": 123.75,
    "B Lee": 175,
    "Mohammed Shami": 50,
    "SP Narine": 121.05,
    "BMAJ Mendis": 85.19,
    "KM Jadhav": 121.14,
    "M Morkel": 196.55,
    "UT Yadav": 100,
    "Gurkeerat Singh": 120,
    "Azhar Mahmood": 133.77,
    "R Sathish": 144.74,
    "PP Chawla": 117.54,
    "RJ Harris": 40,
    "P Kumar": 121.05,
    "P Awana": 11.11,
    "R McLaren": 50,
    "PJ Sangwan": 200,
    "AB de Villiers": 168.61,
    "JP Faulkner": 100,
    "AJ Finch": 138.81,
    "V Sehwag": 131.88,
    "A Mishra": 93.68,
    "R Rampaul": 108.33,
    "CH Morris": 87.5,
    "KV Sharma": 100,
    "SV Samson": 116.29,
    "SPD Smith": 121.21,
    "S Anirudha": 0,
    "JA Morkel": 124.32,
    "DA Miller": 169.96,
    "MS Gony": 180,
    "DB Das": 105.41,
    "SMSM Senanayake": 62.5,
    "BJ Rohrer": 141.84,
    "KL Rahul": 125,
    "AB McDonald": 0,
    "J Syed Mohammad": 76.92,
    "Q de Kock": 40,
    "BB Samantray": 113.51,
    "R Dhawan": 123.81,
    "MG Johnson": 108.33,
    "SL Malinga": 50,
    "PP Ojha": 50,
    "AB Agarkar": 75,
    "PC Valthaty": 58.82,
    "AD Mascarenhas": 100,
    "L Balaji": 90,
    "A Chandila": 66.67,
    "SW Tait": 33.33,
    "SK Trivedi": 42.86,
    "SS Tiwary": 103.77,
    "LJ Wright": 172.88,
    "M Manhas": 76.47,
    "AG Murtaza": 125,
    "IC Pandey": 0,
    "SE Marsh": 124.5,
    "CM Gautam": 129.41,
    "S Dhawan": 125.3,
    "X Thalaivan Sargunam": 58.82,
    "DJG Sammy": 137.12,
    "WP Saha": 126.79,
    "BB McCullum": 85.71,
    "A Mukund": 90.48,
    "OA Shah": 108.7,
    "KW Richardson": 94.44,
    "S Narwal": 153.33,
    "LA Pomersbach": 106.78,
    "BAW Mendis": 50,
    "CA Pujara": 94.95,
    "MM Sharma": 0,
    "Iqbal Abdulla": 64.29,
    "RN ten Doeschate": 141.27,
    "UA Birla": 50,
    "M Rawat": 45.45,
    "WD Parnell": 71.43,
    "Parvez Rasool": 66.67,
    "K Upadhyay": 100,
    "GJ Maxwell": 133.33,
    "Harmeet Singh": 75,
    "Sandeep Sharma": 0,
    "A Mithun": 100,
    "RE van der Merwe": 104,
    "S Kaul": 77.78,
    "AP Tare": 146.43,
    "Sachin Baby": 57.14,
    "PV Tambe": 66.67,
    "NM Coulter-Nile": 150,
    "RV Gomez": 400,
    "B Chipli": 117.65,
    "P Dogra": 75
  },
  "2014": {
    "G Gambhir": 115.86,
    "JH Kallis": 117.97,
    "MK Pandey": 121.57,
    "RV Uthappa": 140.79,
    "YK Pathan": 163.03,
    "Shakib Al Hasan": 150.33,
    "SA Yadav": 146.09,
    "MEK Hussey": 116.48,
    "AP Tare": 131.96,
    "AT Rayudu": 127.62,
    "RG Sharma": 129.8,
    "KA Pollard": 136.63,
    "CJ Anderson": 148.07,
    "Harbhajan Singh": 116,
    "CM Gautam": 123.64,
    "MA Agarwal": 126.37,
    "M Vijay": 110.94,
    "KD Karthik": 127.52,
    "MK Tiwary": 130.51,
    "JP Duminy": 136.75,
    "LRPL Taylor": 100,
    "PA Patel": 114.05,
    "NJ Maddinson": 114.29,
    "V Kohli": 124.49,
    "Yuvraj Singh": 137.59,
    "DR Smith": 141.69,
    "BB McCullum": 123.72,
    "SK Raina": 147.06,
    "MS Dhoni": 158.3,
    "DJ Bravo": 266.67,
    "CA Pujara": 105.69,
    "V Sehwag": 150.32,
    "GJ Maxwell": 193.81,
    "AR Patel": 103.33,
    "DA Miller": 153.51,
    "GJ Bailey": 136.7,
    "AJ Finch": 123.37,
    "DA Warner": 143.67,
    "S Dhawan": 122.71,
    "KL Rahul": 103.66,
    "DJG Sammy": 124.18,
    "Y Venugopal Rao": 125.4,
    "KV Sharma": 158.62,
    "AM Nayar": 84.78,
    "SV Samson": 124.91,
    "AM Rahane": 119.93,
    "SR Watson": 125.25,
    "STR Binny": 103.31,
    "BJ Hodge": 140.28,
    "R Bhatia": 128.3,
    "JP Faulkner": 195.7,
    "Z Khan": 142.86,
    "SL Malinga": 50,
    "PP Ojha": 75,
    "JJ Bumrah": 33.33,
    "AB de Villiers": 158.47,
    "JDS Neesham": 97.83,
    "SPD Smith": 136.61,
    "WP Saha": 147.39,
    "F du Plessis": 129.79,
    "RA Jadeja": 136.7,
    "M Manhas": 152.17,
    "R Ashwin": 106.67,
    "S Nadeem": 36.84,
    "Mohammed Shami": 42.86,
    "JD Unadkat": 16.67,
    "MG Johnson": 118,
    "IK Pathan": 105.56,
    "DW Steyn": 84.62,
    "A Mishra": 114.29,
    "B Kumar": 50,
    "TG Southee": 100,
    "DS Kulkarni": 140,
    "PV Tambe": 55.56,
    "CA Lynn": 118.37,
    "R Vinay Kumar": 83.33,
    "YV Takawale": 120.88,
    "JA Morkel": 114.63,
    "Q de Kock": 121.54,
    "KP Pietersen": 130.47,
    "S Rana": 112.5,
    "MA Starc": 114.29,
    "R Rampaul": 100,
    "AB Dinda": 33.33,
    "KK Nair": 143.53,
    "R Dhawan": 109.33,
    "L Balaji": 33.33,
    "Sandeep Sharma": 60,
    "PP Chawla": 168.42,
    "SP Narine": 78.57,
    "UT Yadav": 50,
    "M Morkel": 133.33,
    "KM Jadhav": 152.53,
    "CH Gayle": 111.96,
    "VR Aaron": 103.03,
    "MS Bisla": 33.33,
    "NV Ojha": 145,
    "BR Dunk": 122.86,
    "AD Russell": 25,
    "RR Rossouw": 95.12,
    "HV Patel": 185.71,
    "RN ten Doeschate": 163.64,
    "LR Shukla": 92.11,
    "Mandeep Singh": 96,
    "MC Henriques": 78.57,
    "KW Richardson": 50,
    "Shivam Sharma": 166.67,
    "YS Chahal": 100,
    "R Shukla": 85.71,
    "LMP Simmons": 137.93,
    "VH Zol": 111.54,
    "Ankit Sharma": 113.33,
    "DH Yagnik": 83.33,
    "M Vohra": 141.81,
    "KK Cooper": 161.54,
    "BCJ Cutting": 150,
    "Imran Tahir": 80,
    "S Kaul": 100,
    "DJ Hussey": 123.4,
    "AN Ahmed": 400,
    "UBT Chand": 22.22,
    "WD Parnell": 100,
    "SE Marsh": 146.15,
    "BE Hendricks": 0,
    "S Gopal": 110,
    "M de Lange": 50,
    "R Tewatia": 146.15,
    "VS Malik": 50,
    "S Anirudha": 60,
    "JO Holder": 133.33,
    "Karanveer Singh": 100,
    "P Kumar": 50,
    "MM Sharma": 33.33
  },
  "2015": {
    "RG Sharma": 145.35,
    "AJ Finch": 75.76,
    "AP Tare": 82.35,
    "AT Rayudu": 147.4,
    "CJ Anderson": 119.79,
    "RV Uthappa": 134.66,
    "G Gambhir": 120.5,
    "MK Pandey": 122.83,
    "SA Yadav": 140.71,
    "YK Pathan": 136.68,
    "DR Smith": 125.98,
    "BB McCullum": 159.06,
    "SK Raina": 125.08,
    "F du Plessis": 125.66,
    "RA Jadeja": 106.35,
    "MS Dhoni": 125.9,
    "DJ Bravo": 137.16,
    "R Ashwin": 162.5,
    "MM Sharma": 155.56,
    "MA Agarwal": 122.16,
    "CM Gautam": 80,
    "JA Morkel": 132.31,
    "SS Iyer": 128.95,
    "KM Jadhav": 137.14,
    "Yuvraj Singh": 119.62,
    "JP Duminy": 134.6,
    "NM Coulter-Nile": 111.11,
    "A Mishra": 66.67,
    "Imran Tahir": 83.33,
    "AM Rahane": 134.22,
    "SV Samson": 128.4,
    "SPD Smith": 133.18,
    "KK Nair": 128.28,
    "STR Binny": 118.46,
    "JP Faulkner": 135.19,
    "DJ Hooda": 160,
    "CH Morris": 157.78,
    "V Sehwag": 122.62,
    "WP Saha": 130.46,
    "M Vijay": 113.16,
    "GJ Maxwell": 134.51,
    "AR Patel": 119.54,
    "DA Miller": 138.58,
    "GJ Bailey": 137.37,
    "MG Johnson": 91.67,
    "Anureet Singh": 67.74,
    "Karanveer Singh": 68.75,
    "DA Warner": 158.71,
    "S Dhawan": 124.56,
    "KL Rahul": 114.52,
    "NV Ojha": 114.17,
    "RS Bopara": 120.83,
    "KS Williamson": 133.33,
    "KV Sharma": 125.88,
    "Parvez Rasool": 100,
    "AD Russell": 196.45,
    "Shakib Al Hasan": 133.33,
    "CH Gayle": 153.78,
    "V Kohli": 130.83,
    "KD Karthik": 124.79,
    "Mandeep Singh": 161,
    "AB de Villiers": 179.73,
    "DJG Sammy": 72.22,
    "SA Abbott": 123.08,
    "HV Patel": 166.67,
    "AN Ahmed": 200,
    "AD Mathews": 140.78,
    "TG Southee": 144.44,
    "R Dhawan": 112.12,
    "KA Pollard": 164.31,
    "J Suchith": 156.25,
    "Harbhajan Singh": 166.67,
    "VR Aaron": 200,
    "YS Chahal": 100,
    "PA Patel": 139.43,
    "UBT Chand": 127.71,
    "S Gopal": 100,
    "P Negi": 166.67,
    "A Nehra": 57.14,
    "RG More": 100,
    "EJG Morgan": 124.5,
    "A Ashish Reddy": 160.87,
    "LMP Simmons": 124.66,
    "R Vinay Kumar": 100,
    "P Kumar": 72,
    "NLTC Perera": 106.67,
    "Gurkeerat Singh": 89.74,
    "RN ten Doeschate": 137.78,
    "PP Chawla": 121.28,
    "SR Watson": 134.24,
    "HH Pandya": 186.67,
    "MS Bisla": 123.33,
    "RR Rossouw": 150,
    "D Wiese": 147.06,
    "Iqbal Abdulla": 123.53,
    "MK Tiwary": 105.36,
    "SE Marsh": 146.77,
    "MC Henriques": 135.71,
    "SN Khan": 157.14,
    "MA Starc": 78.57,
    "MJ McClenaghan": 216.67,
    "SL Malinga": 70,
    "DS Kulkarni": 36.36,
    "PV Tambe": 60,
    "GH Vihari": 111.76,
    "DW Steyn": 153.85,
    "B Kumar": 170,
    "Sandeep Sharma": 64.29,
    "S Nadeem": 28.57,
    "DJ Muthuswami": 33.33,
    "M Vohra": 103.7,
    "J Botha": 213.33,
    "SS Tiwary": 147.44,
    "PJ Cummins": 50,
    "UT Yadav": 207.14,
    "GB Hogg": 116.67,
    "SN Thakur": 116.67,
    "J Theron": 100,
    "NJ Maddinson": 57.14,
    "Bipul Sharma": 50,
    "SP Narine": 100,
    "Q de Kock": 159.74,
    "R Bhatia": 0,
    "Ankit Sharma": 116.67,
    "BE Hendricks": 50,
    "MEK Hussey": 111.43,
    "Azhar Mahmood": 85.71,
    "M Morkel": 133.33,
    "S Aravind": 0
  },
  "2016": {
    "LMP Simmons": 100,
    "RG Sharma": 133.88,
    "HH Pandya": 73.02,
    "JC Buttler": 140.44,
    "AT Rayudu": 121.3,
    "KA Pollard": 150.69,
    "S Gopal": 12.5,
    "Harbhajan Singh": 109.52,
    "R Vinay Kumar": 108.33,
    "MJ McClenaghan": 147.83,
    "AM Rahane": 127.78,
    "F du Plessis": 132.1,
    "KP Pietersen": 122.95,
    "MA Agarwal": 108,
    "Q de Kock": 138.96,
    "SS Iyer": 72.09,
    "KK Nair": 121.36,
    "SV Samson": 113.95,
    "P Negi": 98.31,
    "CR Brathwaite": 226.32,
    "CH Morris": 178.9,
    "NM Coulter-Nile": 64.29,
    "A Mishra": 28.57,
    "Z Khan": 46.15,
    "RV Uthappa": 139.93,
    "G Gambhir": 123.36,
    "MK Pandey": 138.25,
    "M Vijay": 128.3,
    "M Vohra": 124.43,
    "DA Miller": 120.77,
    "GJ Maxwell": 147.58,
    "WP Saha": 128.3,
    "MP Stoinis": 139.81,
    "AR Patel": 144.16,
    "AJ Finch": 135.35,
    "BB McCullum": 138.17,
    "SK Raina": 129.49,
    "KD Karthik": 126.69,
    "RA Jadeja": 110.29,
    "Ishan Kishan": 107.32,
    "DJ Bravo": 124.39,
    "CH Gayle": 155.33,
    "V Kohli": 152.12,
    "AB de Villiers": 171.6,
    "SR Watson": 133.58,
    "KM Jadhav": 129.03,
    "SN Khan": 216.13,
    "DA Warner": 152.33,
    "S Dhawan": 118.97,
    "MC Henriques": 117.2,
    "NV Ojha": 100,
    "DJ Hooda": 116.81,
    "EJG Morgan": 120,
    "A Ashish Reddy": 162.07,
    "KV Sharma": 136.67,
    "AD Russell": 169.3,
    "YK Pathan": 149.19,
    "C Munro": 113.33,
    "SA Yadav": 127.66,
    "PA Patel": 119.87,
    "SPD Smith": 155.43,
    "MS Dhoni": 139.52,
    "MR Marsh": 63.64,
    "R Bhatia": 170,
    "SE Marsh": 121.64,
    "MG Johnson": 42.86,
    "MM Sharma": 126.92,
    "P Sahu": 146.15,
    "Sandeep Sharma": 88.89,
    "B Kumar": 162.96,
    "KH Pandya": 191.94,
    "TG Southee": 166.67,
    "AD Nath": 74.07,
    "JP Faulkner": 134.48,
    "P Kumar": 92.31,
    "DS Kulkarni": 175,
    "NLTC Perera": 164.13,
    "IK Pathan": 92.31,
    "R Ashwin": 107.89,
    "D Wiese": 125,
    "JP Duminy": 125.81,
    "MJ Guptill": 110.91,
    "KJ Abbott": 162.5,
    "Shakib Al Hasan": 109.43,
    "KL Rahul": 150.55,
    "TM Head": 135.9,
    "STR Binny": 164.1,
    "KW Richardson": 100,
    "DW Steyn": 50,
    "Ankit Sharma": 100,
    "M Ashwin": 0,
    "NS Naik": 77.42,
    "R Dhawan": 233.33,
    "AP Tare": 80,
    "DR Smith": 145.91,
    "JA Morkel": 188.89,
    "R Sathish": 104.17,
    "PP Chawla": 107.69,
    "UT Yadav": 180,
    "Bipul Sharma": 208,
    "RR Pant": 130.92,
    "CA Lynn": 113.64,
    "SS Tiwary": 121.58,
    "SW Billings": 149.21,
    "Mohammed Shami": 75,
    "JO Holder": 126.32,
    "SP Narine": 53.85,
    "KS Williamson": 105.74,
    "Sachin Baby": 153.25,
    "Parvez Rasool": 111.11,
    "Gurkeerat Singh": 131.4,
    "KC Cariappa": 118.18,
    "PSP Handscomb": 50,
    "Swapnil Singh": 0,
    "J Yadav": 60,
    "UT Khawaja": 129.29,
    "Yuvraj Singh": 132.96,
    "GJ Bailey": 90.72,
    "HM Amla": 135.29,
    "JJ Bumrah": 72.73,
    "F Behardien": 107.69,
    "BB Sran": 100,
    "A Zampa": 0,
    "N Rana": 137.84,
    "A Nehra": 100,
    "UBT Chand": 0,
    "PV Tambe": 38.89,
    "S Kaushik": 0,
    "BCJ Cutting": 197.06,
    "S Nadeem": 40,
    "Imran Tahir": 71.43,
    "M Morkel": 100,
    "ER Dwivedi": 200,
    "SB Jakati": 50,
    "Iqbal Abdulla": 146.15,
    "CJ Jordan": 100
  },
  "2017": {
    "DA Warner": 144.32,
    "S Dhawan": 129.33,
    "MC Henriques": 138.42,
    "Yuvraj Singh": 141.48,
    "DJ Hooda": 150,
    "BCJ Cutting": 196.15,
    "CH Gayle": 127.78,
    "Mandeep Singh": 108.47,
    "TM Head": 140.74,
    "KM Jadhav": 146.45,
    "SR Watson": 93.59,
    "Sachin Baby": 100,
    "STR Binny": 103.95,
    "S Aravind": 87.5,
    "YS Chahal": 50,
    "TS Mills": 81.82,
    "A Choudhary": 125,
    "PA Patel": 140.27,
    "JC Buttler": 155.87,
    "RG Sharma": 125.27,
    "N Rana": 127.38,
    "AT Rayudu": 117.95,
    "KH Pandya": 140.78,
    "KA Pollard": 144.8,
    "HH Pandya": 159.75,
    "TG Southee": 233.33,
    "AM Rahane": 118.58,
    "MA Agarwal": 100,
    "SPD Smith": 123.51,
    "BA Stokes": 143.89,
    "MS Dhoni": 118.4,
    "JJ Roy": 147.5,
    "BB McCullum": 148.64,
    "SK Raina": 146.05,
    "AJ Finch": 170.88,
    "KD Karthik": 140.31,
    "G Gambhir": 132.39,
    "CA Lynn": 183.85,
    "MK Tiwary": 139.15,
    "DT Christian": 163.27,
    "HM Amla": 147.74,
    "M Vohra": 147.8,
    "WP Saha": 125.27,
    "AR Patel": 140.74,
    "GJ Maxwell": 180.9,
    "DA Miller": 101.28,
    "Vishnu Vinod": 73.08,
    "Iqbal Abdulla": 71.43,
    "P Negi": 136.04,
    "AP Tare": 82.61,
    "SW Billings": 134.95,
    "KK Nair": 128.32,
    "SV Samson": 143.96,
    "RR Pant": 167.27,
    "CH Morris": 164.89,
    "CR Brathwaite": 80,
    "PJ Cummins": 147.17,
    "A Mishra": 98.08,
    "S Nadeem": 33.33,
    "Z Khan": 30.77,
    "DR Smith": 155.13,
    "DS Kulkarni": 50,
    "P Kumar": 88.89,
    "Basil Thampi": 107.14,
    "RV Uthappa": 171.06,
    "MK Pandey": 128.1,
    "YK Pathan": 125.22,
    "SA Yadav": 120.45,
    "CR Woakes": 97.87,
    "SP Narine": 175.38,
    "Harbhajan Singh": 112.5,
    "AB de Villiers": 137.42,
    "CJ Anderson": 117.21,
    "F du Plessis": 114.29,
    "RA Tripathi": 150.94,
    "R Bhatia": 100,
    "DL Chahar": 233.33,
    "A Zampa": 71.43,
    "AB Dinda": 100,
    "Imran Tahir": 0,
    "NV Ojha": 121.54,
    "V Shankar": 134.67,
    "Rashid Khan": 133.33,
    "B Kumar": 100,
    "MP Stoinis": 70.83,
    "MM Sharma": 102,
    "VR Aaron": 40,
    "V Kohli": 122.62,
    "MJ McClenaghan": 106.67,
    "Ankit Sharma": 166.67,
    "SN Thakur": 0,
    "RD Chahar": 150,
    "LH Ferguson": 100,
    "C de Grandhomme": 141.3,
    "Bipul Sharma": 133.33,
    "SS Iyer": 142.15,
    "EJG Morgan": 106.45,
    "KC Cariappa": 28.57,
    "Sandeep Sharma": 120,
    "Ishan Kishan": 136.59,
    "JD Unadkat": 60,
    "AF Milne": 58.33,
    "S Badree": 56.52,
    "AD Mathews": 118.52,
    "Mohammed Shami": 154.17,
    "Mohammad Nabi": 66.67,
    "I Sharma": 66.67,
    "RA Jadeja": 140.71,
    "AJ Tye": 186.21,
    "KS Williamson": 156.55,
    "SE Marsh": 136.46,
    "Shakib Al Hasan": 100,
    "JP Faulkner": 94.64,
    "MG Johnson": 123.53,
    "K Rabada": 87.5,
    "AD Nath": 0,
    "NM Coulter-Nile": 116.67,
    "Kuldeep Yadav": 90.91,
    "UT Yadav": 76.92,
    "Washington Sundar": 100,
    "KV Sharma": 119.51,
    "DM Bravo": 120,
    "AR Bawne": 100,
    "SP Jackson": 122.58,
    "MJ Guptill": 144.83,
    "Anureet Singh": 125,
    "IK Pathan": 66.67,
    "Ankit Soni": 100,
    "JJ Bumrah": 133.33,
    "SL Malinga": 233.33,
    "PJ Sangwan": 50,
    "S Kaul": 0,
    "LMP Simmons": 126.79,
    "MN Samuels": 93.55,
    "Swapnil Singh": 63.16,
    "R Tewatia": 181.82,
    "MM Patel": 0,
    "SS Tiwary": 125.58,
    "TA Boult": 62.5,
    "CJ Jordan": 0,
    "IR Jaggi": 89.74,
    "PP Chawla": 33.33,
    "AS Rajpoot": 57.14
  }
}